evasl.utf8
…
## NULL

sentiments %>%
  count(word, score, sort = TRUE) %>%
  ungroup()

## # A tibble: 164 x 3
##    word        score     n
##    <chr>       <int> <int>
##  1 recommend       2    39
##  2 excellent       3    25
##  3 helpful         2    12
##  4 care            2    11
##  5 worth           2    11
##  6 focused         2    10
##  7 wonderful       4    10
##  8 amazing         4     9
##  9 opportunity     2     8
## 10 brilliant       4     7
## # ... with 154 more rows
…
